Processos autoregressivos - AR(p): Parte III
…
Series: y 
Model: AR(2) w/ mean 

Coefficients:
  constant     ar1      ar2
    0.0918  0.7805  -0.4574

sigma^2 estimated as 2.001
AIC = -566.14   AICc = -566.11  BIC = -551.41

Code

augment(fit)

# A tsibble: 1,000 x 6 [1D]
# Key:       .model [1]
   .model t               y .fitted .resid .innov
   <chr>  <date>      <dbl>   <dbl>  <dbl>  <dbl>
 1 ar2    1995-01-11 -1.17  NA      NA     NA    
 2 ar2    1995-01-12 -0.884 NA      NA     NA    
 3 ar2    1995-01-13 -1.63  -0.0637 -1.56  -1.56 
 4 ar2    1995-01-14 -1.15  -0.773  -0.373 -0.373
 5 ar2    1995-01-15 -1.57  -0.0591 -1.51  -1.51 
 6 ar2    1995-01-16 -1.71  -0.610  -1.10  -1.10 
 7 ar2    1995-01-17 -1.48  -0.522  -0.956 -0.956
 8 ar2    1995-01-18 -2.73  -0.281  -2.45  -2.45 
 9 ar2    1995-01-19 -0.273 -1.37    1.09   1.09 
10 ar2    1995-01-20  1.29   1.13    0.165  0.165
# … with 990 more rows
…
