Decomposição de séries temporais
…
Utilizamos Médias Móveis das Médias Móveis (\(2 \times m - MM\))

Médias Móveis (1920s)

Code

beer <- aus_production |> 
  filter(year(Quarter) >= 1992) |> 
  select(Quarter, Beer)
beer_ma <- beer |> 
  mutate( `4-MM` = slider::slide_dbl(Beer, mean,.before = 1, .after = 2, .complete = TRUE),
          `2x4-MM` = slider::slide_dbl(`4-MM`, mean,  .before = 1, .after = 0, .complete = TRUE))
beer_ma

# A tsibble: 74 x 4 [1Q]
   Quarter  Beer `4-MM` `2x4-MM`
     <qtr> <dbl>  <dbl>    <dbl>
 1 1992 Q1   443    NA       NA 
 2 1992 Q2   410   451.      NA 
 3 1992 Q3   420   449.     450 
 4 1992 Q4   532   452.     450.
 5 1993 Q1   433   449      450.
 6 1993 Q2   421   444      446.
 7 1993 Q3   410   448      446 
 8 1993 Q4   512   438      443 
 9 1994 Q1   449   441.     440.
10 1994 Q2   381   446      444.
# ℹ 64 more rows
…
Code

dcmp <- passageiros %>%   # passageiros é do tipo tsibble
  model(decomposition = classical_decomposition(Passengers,
                                                type = "mult")) %>% 
  components() 
dcmp

# A dable: 144 x 7 [1M]
# Key:     .model [1]
# :        Passengers = trend * seasonal * random
   .model           Month Passengers trend seasonal random season_adjust
   <chr>            <mth>      <int> <dbl>    <dbl>  <dbl>         <dbl>
 1 decomposition 1949 Jan        112   NA     0.910 NA              123.
 2 decomposition 1949 Feb        118   NA     0.884 NA              134.
 3 decomposition 1949 Mar        132   NA     1.01  NA              131.
 4 decomposition 1949 Apr        129   NA     0.976 NA              132.
 5 decomposition 1949 May        121   NA     0.981 NA              123.
 6 decomposition 1949 Jun        135   NA     1.11  NA              121.
 7 decomposition 1949 Jul        148  127.    1.23   0.952          121.
 8 decomposition 1949 Aug        148  127.    1.22   0.953          121.
 9 decomposition 1949 Sep        136  128.    1.06   1.00           128.
10 decomposition 1949 Oct        119  129.    0.922  1.00           129.
# ℹ 134 more rows
…
