Modelos de regressão em dados de séries temporais II
…
Code

modelos <- boston_men %>%
  model(linear = TSLM(Minutos ~ trend()),
        exponencial = TSLM(log(Minutos) ~ trend()),
        spline = TSLM(Minutos ~ trend(knots = c(1950, 1980))))
previsoes <- forecast(modelos, h = 12)
previsoes

# A fable: 36 x 4 [1Y]
# Key:     .model [3]
   .model  Year
   <chr>  <dbl>
 1 linear  2020
 2 linear  2021
 3 linear  2022
 4 linear  2023
 5 linear  2024
 6 linear  2025
 7 linear  2026
 8 linear  2027
 9 linear  2028
10 linear  2029
# ℹ 26 more rows
# ℹ 2 more variables: Minutos <dist>, .mean <dbl>
…
